TransDate,DetailCode,Amount,InvoiceNumber,Description
06/28/2011,CDDX,150.00,CDP00304,CDP-I Assessment License-Standard
06/28/2011,CDPS,18.45,CDP00304,Shipping & Handling
06/28/2011,CDDX,1350.00,CDP00305,CDP-I Assessment License-Bulk (50-99)
06/28/2011,CDPS,57.62,CDP00305,Shipping & Handling