TransDate,DetailCode,Amount,InvoiceNumber,Description
03/14/2011,CDDX,90.00,CDP00204,CDP-I Assessment License-Standard
03/14/2011,CDPS,14.00,CDP00204,Shipping & Handling
03/14/2011,CDDX,240.00,CDP00205,CDP-I Assessment License-Standard
03/14/2011,CDPS,40.19,CDP00205,Shipping & Handling
03/15/2011,CDDX,30.00,CDP00208,CDP-I Assessment License-Standard