TransDate,DetailCode,Amount,InvoiceNumber,Description
09/11/2012,CDDX,90.00,CDP00694,CDP-I Assessment License-Standard
09/11/2012,CDPS,14.78,CDP00694,Shipping & Handling
09/12/2012,CDDX,30.00,CDP00695,CDP-I Assessment License-Standard
09/12/2012,CDDX,840.00,CDP00696,CDP-I Assessment License-Standard
09/12/2012,CDPS,85.93,CDP00696,Shipping & Handling