TransDate,DetailCode,Amount,InvoiceNumber,Description
09/08/2015,CDDX,2400.00,CDP01646,CDP-I Assessment License-Bulk (50-99)
09/08/2015,CDPS,57.02,CDP01646,Shipping & Handling
09/09/2015,CDDX,33.00,CDP01647,CDP-I Assessment License-Standard