TransDate,DetailCode,Amount,InvoiceNumber,Description
09/18/2015,CDDX,66.00,CDP01661,CDP-I Assessment License-Standard
09/18/2015,CDDX,660.00,CDP01662,CDP-I Assessment License-Standard
09/18/2015,CDPS,28.67,CDP01662,Shipping & Handling
09/18/2015,CDDX,132.00,CDP01664,CDP-I Assessment License-Standard