TransDate,DetailCode,Amount,InvoiceNumber,Description
03/25/2014,CDDX,1419.00,CDP01116,CDP-I Assessment License-Standard
03/25/2014,CDPS,39.92,CDP01116,Shipping & Handling
03/25/2014,CDDX,231.00,CDP01117,CDP-I Assessment License-Standard
03/25/2014,CDPS,17.03,CDP01117,Shipping & Handling