TransDate,DetailCode,Amount,InvoiceNumber,Description
03/12/2014,CDDX,297.00,CDP01106,CDP-I Assessment License-Standard
03/12/2014,CDDX,66.00,CDP01107,CDP-I Assessment License-Standard
03/12/2014,CDPS,15.28,CDP01107,Shipping & Handling
03/13/2014,CDDX,33.00,CDP01108,CDP-I Assessment License-Standard