TransDate,DetailCode,Amount,InvoiceNumber,Description
10/15/2013,CDDX,495.00,CDP00999,CDP-I Assessment License-Standard
10/15/2013,CDPS,23.47,CDP00999,Shipping & Handling
10/15/2013,CDDX,33.00,CDP01000,CDP-I Assessment License-Standard
10/15/2013,CDPS,13.15,CDP01000,Shipping & Handling
10/15/2013,CDDX,264.00,CDP01001,CDP-I Assessment License-Standard
10/15/2013,CDPS,16.04,CDP01001,Shipping & Handling
10/16/2013,CDDX,195.00,CDP01002,CDP-360 Assessment License-Standard