TransDate,DetailCode,Amount,InvoiceNumber,Description
10/09/2013,CDDX,330.00,CDP00995,CDP-I Assessment License-Standard
10/09/2013,CDPS,23.50,CDP00995,Shipping & Handling
10/10/2013,CDDX,99.00,CDP00996,CDP-I Assessment License-Standard
10/10/2013,CDPS,14.25,CDP00996,Shipping & Handling