TransDate,DetailCode,Amount,InvoiceNumber,Description
03/21/2013,CDDX,1350.00,CDP00830,CDP-I Assessment License-Bulk (50-99)
03/21/2013,CDPX,165.00,CDP00830,Coach's & Trainer's Toolkit
03/21/2013,CDPS,41.71,CDP00830,Shipping & Handling