TransDate,DetailCode,Amount,InvoiceNumber,Description
03/25/2013,CDDX,1485.00,CDP00831,CDP-I Paper/Pencil-Bulk (50-99)
03/25/2013,CDPS,31.03,CDP00831,Shipping & Handling
03/25/2013,CDDX,1110.00,CDP00832,CDP-I Assessment License-Standard
03/25/2013,CDPS,35.62,CDP00832,Shipping & Handling
03/25/2013,CDDT,1583.60,CDP00833,CDP-360 Assessment License-Standard
03/25/2013,CDPS,16.04,CDP00833,Shipping & Handling