TransDate,DetailCode,Amount,InvoiceNumber,Description
10/24/2011,CDDX,420.00,CDP00397,CDP-I Assessment License-Standard
10/24/2011,CDPS,22.53,CDP00397,Shipping & Handling
10/24/2011,CDDX,300.00,CDP00398,CDP-I Assessment License-Standard