TransDate,DetailCode,Amount,InvoiceNumber,Description
07/08/2015,CDDX,99.00,CDP01596,CDP-I Assessment License-Standard
07/08/2015,CDDX,528.00,CDP01597,CDP-I Assessment License-Standard
07/08/2015,CDPS,24.93,CDP01597,Shipping & Handling
07/08/2015,CDDX,198.00,CDP01598,CDP-I Assessment License-Standard
07/08/2015,CDPS,17.60,CDP01598,Shipping & Handling
07/08/2015,CDDX,33.00,CDP01599,CDP-I Assessment License-Standard
07/08/2015,CDPS,44.26,CDP01599,Shipping & Handling
07/09/2015,CDDX,33.00,CDP01600,CDP-I Assessment License-Standard
07/09/2015,CDPS,17.34,CDP01600,Shipping & Handling