TransDate,DetailCode,Amount,InvoiceNumber,Description
04/23/2012,CDDX,90.00,CDP00556,CDP-I Assessment License-Standard
04/23/2012,CDPS,14.89,CDP00556,Shipping & Handling
04/23/2012,CDDX,60.00,CDP00557,CDP-I Assessment License-Standard
04/24/2012,CDDX,90.00,CDP00558,CDP-I Assessment License-Standard
04/24/2012,CDPS,13.40,CDP00558,Shipping & Handling