TransDate,DetailCode,Amount,InvoiceNumber,Description
04/16/2012,CDDX,60.00,CDP00552,CDP-I Assessment License-Standard
04/16/2012,CDPS,13.03,CDP00552,Shipping & Handling
04/16/2012,CDDX,30.00,CDP00553,CDP-I Assessment License-Standard