TransDate,DetailCode,Amount,InvoiceNumber,Description
10/26/2015,CDDX,1155.00,CDP01692,CDP-I Assessment License-Standard
10/26/2015,CDPS,41.80,CDP01692,Shipping & Handling
10/26/2015,CDDX,33.00,CDP01693,CDP-I Assessment License-Standard
10/26/2015,CDPS,19.60,CDP01693,Shipping & Handling