TransDate,DetailCode,Amount,InvoiceNumber,Description
07/23/2014,CDDX,726.00,CDP01235,CDP-I Assessment License-Standard
07/23/2014,CDPX,95.00,CDP01235,Trainer's Toolkit
07/23/2014,CDPS,29.45,CDP01235,Shipping & Handling