TransDate,DetailCode,Amount,InvoiceNumber,Description
06/15/2015,CDDX,33.00,CDP01569,CDP-I Assessment License-Standard
06/16/2015,CDDX,330.00,CDP01570,CDP-I Assessment License-Standard
06/16/2015,CDPS,24.96,CDP01570,Shipping & Handling
06/16/2015,CDDX,33.00,CDP01571,CDP-I Assessment License-Standard