TransDate,DetailCode,Amount,InvoiceNumber,Description
06/09/2015,CDDX,198.00,CDP01567,CDP-I Assessment License-Standard
06/09/2015,CDPS,18.19,CDP01567,Shipping & Handling
06/09/2015,CDDX,195.00,CDP01568,CDP-360 Assessment License-Standard