TransDate,DetailCode,Amount,InvoiceNumber,Description
02/08/2011,CDDX,900.00,CDP00173,CDP-I Assessment License-Standard
02/09/2011,CDDX,750.00,CDP00174,CDP-I Assessment License-Standard
02/09/2011,CDPS,26.97,CDP00174,Shipping & Handling