TransDate,DetailCode,Amount,InvoiceNumber,Description
02/26/2013,CDDX,30.00,CDP00809,CDP-I Assessment License-Standard
02/26/2013,CDPS,13.63,CDP00809,Shipping & Handling
02/26/2013,CDDX,30.00,CDP00810,CDP-I Assessment License-Standard
02/26/2013,CDPS,13.54,CDP00810,Shipping & Handling