TransDate,DetailCode,Amount,InvoiceNumber,Description
01/06/2014,CDDX,1089.00,CDP01056,CDP-I Assessment License-Standard
01/06/2014,CDPS,34.65,CDP01056,Shipping & Handling
01/07/2014,CDDX,33.00,CDP01057,CDP-I Assessment License-Standard
01/07/2014,CDPS,14.12,CDP01057,Shipping & Handling