TransDate,DetailCode,Amount,InvoiceNumber,Description
05/27/2015,CDDX,231.00,CDP01554,CDP-I Assessment License-Standard
05/27/2015,CDPS,17.37,CDP01554,Shipping & Handling
05/28/2015,CDDX,363.00,CDP01555,CDP-I Assessment License-Standard
05/28/2015,CDPS,127.96,CDP01555,Shipping & Handling