TransDate,DetailCode,Amount,InvoiceNumber,Description
09/13/2010,CDDX,420.00,CDP00068,CDP-I Assessment License-Standard
09/13/2010,CDPS,21.29,CDP00068,Shipping & Handling
09/14/2010,CDDX,240.00,CDP00069,CDP-I Assessment License-Standard
09/14/2010,CDPS,12.75,CDP00069,Shipping & Handling