TransDate,DetailCode,Amount,InvoiceNumber,Description
01/15/2015,CDDX,33.00,CDP01412,CDP-I Assessment License-Standard
01/15/2015,CDPS,17.51,CDP01412,Shipping & Handling
01/16/2015,CDDX,33.00,CDP01413,CDP-I Assessment License-Standard