TransDate,DetailCode,Amount,InvoiceNumber,Description
01/13/2015,CDDX,33.00,CDP01410,CDP-I Assessment License-Standard
01/13/2015,CDPS,17.51,CDP01410,Shipping & Handling
01/13/2015,CDDX,231.00,CDP01411,CDP-I Assessment License-Standard
01/13/2015,CDPS,17.51,CDP01411,Shipping & Handling