TransDate,DetailCode,Amount,InvoiceNumber,Description
11/20/2015,CDDX,264.00,CDP01714,CDP-I Assessment License-Standard
11/20/2015,CDPS,18.90,CDP01714,Shipping & Handling
11/21/2015,CDDX,33.00,CDP01715,CDP-I Assessment License-Standard