TransDate,DetailCode,Amount,InvoiceNumber,Description
11/18/2015,CDDX,66.00,CDP01711,CDP-I Assessment License-Standard
11/18/2015,CDDX,2700.00,CDP01712,CDP-I Paper/Pencil-Bulk (100+)
11/18/2015,CDPS,102.56,CDP01712,Shipping & Handling