TransDate,DetailCode,Amount,InvoiceNumber,Description
05/09/2013,CDDX,165.00,CDP00879,CDP-I Assessment License-Standard
05/09/2013,CDPS,15.80,CDP00879,Shipping & Handling
05/09/2013,CDDX,33.00,CDP00880,CDP-I Assessment License-Standard