TransDate,DetailCode,Amount,InvoiceNumber,Description
03/13/2015,CDDX,390.00,CDP01468,CDP-360 Assessment License-Standard
03/13/2015,CDDX,33.00,CDP01469,CDP-I Assessment License-Standard
03/13/2015,CDDX,363.00,CDP01470,CDP-I Assessment License-Standard