TransDate,DetailCode,Amount,InvoiceNumber,Description
07/24/2012,CDDX,925.00,CDP00648,CDP-360 Assessment License-Standard
07/24/2012,CDDX,300.00,CDP00650,CDP-I Assessment License-Standard
07/25/2012,CDDX,370.00,CDP00651,CDP-360 Assessment License-Standard
07/25/2012,CDDT,1284.00,CDP00652,CDP-I Assessment License-Standard
07/25/2012,CDPS,39.31,CDP00652,Shipping & Handling