TransDate,DetailCode,Amount,InvoiceNumber,Description
07/07/2011,CDDX,370.00,CDP00313,CDP-360 Assessment License-Standard
07/08/2011,CDDX,30.00,CDP00314,CDP-I Assessment License-Standard
07/08/2011,CDPS,11.98,CDP00314,Shipping & Handling