TransDate,DetailCode,Amount,InvoiceNumber,Description
05/20/2010,CDDX,150.00,20,CDP-I Assessment License - Standard
05/20/2010,CDPX,50.00,20,CDP-I Development Guide - Standard
05/20/2010,CDPS,15.23,20,Shipping & Handling
05/21/2010,CDDX,600.00,23,CDP-I Assessment License - Standard
05/21/2010,CDPS,23.53,23,Shipping & Handling