TransDate,DetailCode,Amount,InvoiceNumber,Description
03/14/2012,CDDX,3885.00,CDP00524,CDP-360 Assessment License-Standard
03/14/2012,CDPS,26.43,CDP00524,Shipping & Handling
03/14/2012,CDDX,60.00,CDP00525,CDP-I Assessment License-Standard
03/15/2012,CDDX,60.00,CDP00526,CDP-I Assessment License-Standard